Lab 1 – Sydney Potkey
…
mpg |>
  mutate(fuel_type = if_else(
    fl == "p",
    "petrol",
    "alternative energy"))

# A tibble: 234 × 12
   manufacturer model      displ  year   cyl trans drv     cty   hwy fl    class
   <chr>        <chr>      <dbl> <int> <int> <chr> <chr> <int> <int> <chr> <chr>
 1 audi         a4           1.8  1999     4 auto… f        18    29 p     comp…
 2 audi         a4           1.8  1999     4 manu… f        21    29 p     comp…
 3 audi         a4           2    2008     4 manu… f        20    31 p     comp…
 4 audi         a4           2    2008     4 auto… f        21    30 p     comp…
 5 audi         a4           2.8  1999     6 auto… f        16    26 p     comp…
 6 audi         a4           2.8  1999     6 manu… f        18    26 p     comp…
 7 audi         a4           3.1  2008     6 auto… f        18    27 p     comp…
 8 audi         a4 quattro   1.8  1999     4 manu… 4        18    26 p     comp…
 9 audi         a4 quattro   1.8  1999     4 auto… 4        16    25 p     comp…
10 audi         a4 quattro   2    2008     4 manu… 4        20    28 p     comp…
# ℹ 224 more rows
# ℹ 1 more variable: fuel_type <chr>

The drv variable describes if the car has front drive (f), rear drive (r), or four wheel drive (4). Let’s make better labels for these values! Specifically, use the case_when() function to change the drv varible to have the following levels: front, rear, four wheel.

mpg |>
  mutate(drv = case_when(
    drv == "f" ~ "front",
    drv == "r" ~ "rear",
    drv == "4" ~ "four wheel"
  ))

# A tibble: 234 × 11
   manufacturer model      displ  year   cyl trans drv     cty   hwy fl    class
   <chr>        <chr>      <dbl> <int> <int> <chr> <chr> <int> <int> <chr> <chr>
 1 audi         a4           1.8  1999     4 auto… front    18    29 p     comp…
 2 audi         a4           1.8  1999     4 manu… front    21    29 p     comp…
 3 audi         a4           2    2008     4 manu… front    20    31 p     comp…
 4 audi         a4           2    2008     4 auto… front    21    30 p     comp…
 5 audi         a4           2.8  1999     6 auto… front    16    26 p     comp…
 6 audi         a4           2.8  1999     6 manu… front    18    26 p     comp…
 7 audi         a4           3.1  2008     6 auto… front    18    27 p     comp…
 8 audi         a4 quattro   1.8  1999     4 manu… four…    18    26 p     comp…
 9 audi         a4 quattro   1.8  1999     4 auto… four…    16    25 p     comp…
10 audi         a4 quattro   2    2008     4 manu… four…    20    28 p     comp…
# ℹ 224 more rows

(string split + remove extra “)” ) 13. The trans variable contains two pieces of information, (1) the transmission style (auto or manual) and the specific type of transmission (e.g., l5, m5). Using the str_split() function, create a new variable (trans_type) containing the specific type of transmission of each car. Once you’ve made this new variable, use the rename() function to change the name of the trans column to trans_style.

Hint: You will need to deal with the stray parenthesis!

mpg |> 
  mutate(
    trans_split = str_split(trans, "\\(", n = 2),  
    trans = map_chr(trans_split, 1),  
    trans_type = map_chr(trans_split, ~str_remove(.[2], "\\)")) 
  ) |>
  select(-trans_split) |>
  rename(trans_style = trans)

# A tibble: 234 × 12
   manufacturer model      displ  year   cyl trans_style drv     cty   hwy fl   
   <chr>        <chr>      <dbl> <int> <int> <chr>       <chr> <int> <int> <chr>
 1 audi         a4           1.8  1999     4 auto        f        18    29 p    
 2 audi         a4           1.8  1999     4 manual      f        21    29 p    
 3 audi         a4           2    2008     4 manual      f        20    31 p    
 4 audi         a4           2    2008     4 auto        f        21    30 p    
 5 audi         a4           2.8  1999     6 auto        f        16    26 p    
 6 audi         a4           2.8  1999     6 manual      f        18    26 p    
 7 audi         a4           3.1  2008     6 auto        f        18    27 p    
 8 audi         a4 quattro   1.8  1999     4 manual      4        18    26 p    
 9 audi         a4 quattro   1.8  1999     4 auto        4        16    25 p    
10 audi         a4 quattro   2    2008     4 manual      4        20    28 p    
# ℹ 224 more rows
# ℹ 2 more variables: class <chr>, trans_type <chr>
…
